<svg width="180" height="42" viewBox="0 0 180 42" fill="none" xmlns="http://www.w3.org/2000/svg">
<path d="M67.7073 11.9163C69.3733 11.9163 70.8757 12.2872 72.2144 13.029C73.5284 13.7514 74.6104 14.8185 75.3386 16.1104C76.0859 17.4267 76.4599 18.8979 76.4607 20.524C76.4615 22.1501 76.0874 23.6213 75.3386 24.9376C74.6107 26.2297 73.5286 27.297 72.2144 28.0191C70.8789 28.7609 69.3765 29.1321 67.7073 29.1329C66.2844 29.1528 64.882 28.7991 63.6461 28.1085C63.4998 28.024 63.3365 27.9715 63.1675 27.9546C62.9986 27.9377 62.8279 27.9568 62.6671 28.0107C62.5064 28.0645 62.3595 28.1518 62.2366 28.2666C62.1136 28.3813 62.0174 28.5207 61.9547 28.6753H58.6419V6.48981H63.1491V13.2578C64.4815 12.3634 66.0009 11.9163 67.7073 11.9163ZM64.0932 23.6949C64.9567 24.5404 66.0408 24.9632 67.3455 24.9632C68.6502 24.9632 69.7319 24.5404 70.5907 23.6949C71.4486 22.8508 71.8776 21.7951 71.8776 20.5275C71.8776 19.239 71.4482 18.1724 70.5895 17.3276C69.7307 16.4828 68.649 16.06 67.3443 16.0593C66.0396 16.0593 64.9555 16.4851 64.092 17.3369C63.2285 18.1887 62.7968 19.253 62.7968 20.5298C62.7976 21.7951 63.2297 22.8501 64.0932 23.6949Z" fill="#2499E0"/>
<path d="M79.6928 28.6811V6.48981H84.2V28.6811H79.6928Z" fill="#2499E0"/>
<path d="M96.106 29.1387C93.7576 29.1387 91.863 28.4651 90.4222 27.1178C88.9815 25.7704 88.2612 23.9961 88.2612 21.7947V12.3727H92.7683V21.2941C92.7683 22.4556 93.0645 23.3623 93.6567 24.0143C94.249 24.6663 95.067 24.993 96.1108 24.9946C97.1545 24.9946 97.9678 24.6655 98.5506 24.0073C99.1334 23.3491 99.4243 22.4447 99.4235 21.2941V12.3727H103.931V21.7947C103.931 23.9969 103.219 25.7712 101.796 27.1178C100.372 28.4643 98.4759 29.138 96.106 29.1387Z" fill="#2499E0"/>
<path d="M117.082 11.9163C118.748 11.9163 120.251 12.2872 121.589 13.029C122.903 13.7514 123.985 14.8185 124.714 16.1104C125.461 17.4267 125.835 18.8979 125.836 20.524C125.836 22.1501 125.462 23.6213 124.714 24.9376C123.986 26.2297 122.904 27.297 121.589 28.0191C120.254 28.7609 118.751 29.1321 117.082 29.1329C115.659 29.1528 114.257 28.7991 113.021 28.1085C112.875 28.024 112.711 27.9715 112.542 27.9546C112.374 27.9377 112.203 27.9568 112.042 28.0107C111.881 28.0645 111.734 28.1518 111.611 28.2666C111.489 28.3813 111.392 28.5207 111.33 28.6753H108.017V6.48981H112.524V13.2578C113.856 12.3634 115.376 11.9163 117.082 11.9163ZM113.468 23.6949C114.332 24.5404 115.416 24.9632 116.72 24.9632C118.025 24.9632 119.107 24.5404 119.966 23.6949C120.824 22.8493 121.253 21.7927 121.253 20.5252C121.253 19.2367 120.824 18.1701 119.966 17.3253C119.108 16.4805 118.026 16.0577 116.72 16.0569C115.416 16.0569 114.332 16.4828 113.468 17.3346C112.605 18.1863 112.173 19.2506 112.173 20.5275C112.173 21.7943 112.605 22.8501 113.468 23.6949Z" fill="#2499E0"/>
<path d="M145.225 20.4683C145.226 20.9023 145.195 21.3358 145.135 21.7656H132.531C132.722 22.8776 133.177 23.7293 133.894 24.3209C134.611 24.9125 135.517 25.2098 136.612 25.2129C137.34 25.2238 138.058 25.051 138.698 24.7112C139.301 24.3914 139.799 23.911 140.135 23.3255H144.864C144.262 25.1065 143.217 26.5196 141.732 27.5649C140.246 28.6103 138.54 29.1337 136.612 29.1353C135.067 29.1535 133.546 28.7639 132.207 28.0075C130.902 27.2693 129.827 26.1958 129.099 24.9028C128.34 23.5641 127.951 22.0549 127.969 20.524C127.95 18.9889 128.336 17.4748 129.09 16.129C129.814 14.8371 130.888 13.7657 132.193 13.0325C133.538 12.2794 135.064 11.8927 136.612 11.9128C138.278 11.9128 139.773 12.3 141.099 13.0743C142.392 13.8128 143.45 14.8874 144.156 16.1789C144.874 17.4982 145.242 18.9733 145.225 20.4683ZM136.612 15.6806C135.619 15.6806 134.775 15.9517 134.083 16.4937C133.39 17.0357 132.913 17.7926 132.652 18.7644H140.718C140.407 17.7709 139.898 17.009 139.19 16.4786C138.482 15.9482 137.623 15.6822 136.612 15.6806Z" fill="#2499E0"/>
<path d="M164.59 20.4683C164.591 20.9023 164.56 21.3358 164.499 21.7656H151.895C152.086 22.8776 152.54 23.7293 153.258 24.3209C153.976 24.9125 154.881 25.211 155.972 25.2164C156.7 25.2274 157.418 25.0546 158.057 24.7146C158.661 24.3949 159.159 23.9145 159.496 23.329H164.224C163.621 25.1099 162.577 26.5231 161.091 27.5684C159.605 28.6137 157.899 29.1372 155.972 29.1387C154.427 29.1569 152.905 28.7674 151.567 28.0109C150.261 27.2725 149.186 26.199 148.458 24.9063C147.699 23.5676 147.31 22.0584 147.329 20.5275C147.309 18.9922 147.696 17.478 148.451 16.1324C149.174 14.8402 150.247 13.7686 151.553 13.0359C152.897 12.2829 154.423 11.8963 155.972 11.9163C157.638 11.9163 159.134 12.3034 160.459 13.0777C161.751 13.8163 162.809 14.8909 163.516 16.1824C164.235 17.5001 164.605 18.974 164.59 20.4683ZM155.972 15.6806C154.978 15.6806 154.135 15.9516 153.442 16.4937C152.749 17.0357 152.273 17.7926 152.012 18.7644H160.077C159.765 17.7709 159.255 17.009 158.548 16.4786C157.841 15.9482 156.983 15.6822 155.972 15.6806Z" fill="#2499E0"/>
<path d="M172.721 24.6241H179.738V28.6788H165.979V28.1921L173.071 16.3671H166.656V12.3727H179.741V12.9779L172.721 24.6241Z" fill="#2499E0"/>
<path d="M63.703 34.6012V35.3689H61.6866V41.1078H60.8563V35.3689H58.8305V34.6012H63.703Z" fill="#0B3F81"/>
<path d="M67.8353 36.0623H68.2896V36.8115H67.7654C67.3028 36.8115 66.943 36.9505 66.686 37.2284C66.429 37.5064 66.3013 37.8905 66.3029 38.3806V41.1078H65.4916V36.0902H66.0657L66.195 36.8521C66.5666 36.3264 67.1134 36.0631 67.8353 36.0623Z" fill="#0B3F81"/>
<path d="M74.7052 36.0902H75.3493V41.1078H74.6827L74.5937 40.3459C74.3536 40.621 74.0537 40.84 73.716 40.987C73.3199 41.1564 72.8893 41.2345 72.4575 41.2153C72.0257 41.1962 71.6041 41.0804 71.2252 40.8767C70.8267 40.6538 70.4985 40.3279 70.2763 39.9347C70.044 39.5267 69.925 39.0661 69.9312 38.599C69.9214 38.2529 69.9837 37.9085 70.1145 37.5867C70.2452 37.265 70.4415 36.9728 70.6915 36.7279C70.9383 36.4823 71.2343 36.2892 71.5608 36.1607C71.8874 36.0322 72.2374 35.971 72.5892 35.981C72.9818 35.9775 73.3705 36.0567 73.7291 36.2133C74.0701 36.3618 74.3726 36.5838 74.6139 36.8626L74.7052 36.0902ZM71.2952 39.9231C71.6579 40.263 72.1406 40.4528 72.6426 40.4528C73.1446 40.4528 73.6273 40.263 73.99 39.9231C74.3336 39.5632 74.5248 39.0888 74.5248 38.5961C74.5248 38.1034 74.3336 37.6291 73.99 37.2691C73.6273 36.9292 73.1446 36.7395 72.6426 36.7395C72.1406 36.7395 71.6579 36.9292 71.2952 37.2691C70.95 37.6274 70.7578 38.1013 70.7578 38.5938C70.7578 39.0863 70.95 39.5602 71.2952 39.9185V39.9231Z" fill="#0B3F81"/>
<path d="M81.9321 36.0902H82.7624L80.6025 41.1078H79.8707L77.6515 36.0902H78.4948L80.2324 40.0822L81.9321 36.0902Z" fill="#0B3F81"/>
<path d="M89.7248 38.621C89.7248 38.7116 89.7201 38.8057 89.7106 38.9033H85.3422C85.386 39.3356 85.5953 39.7356 85.9281 40.0229C86.2651 40.3079 86.6989 40.4587 87.1439 40.4457C87.4728 40.4508 87.7973 40.3707 88.0845 40.2134C88.3571 40.0631 88.583 39.8431 88.738 39.5769H89.5908C89.3953 40.064 89.0574 40.4838 88.6194 40.7837C88.1847 41.0729 87.6693 41.2234 87.1439 41.2146C86.6768 41.22 86.2168 41.1025 85.8119 40.8743C85.4164 40.6514 85.091 40.3264 84.8713 39.9347C84.6484 39.5233 84.5319 39.0647 84.5319 38.599C84.5319 38.1333 84.6484 37.6747 84.8713 37.2633C85.0905 36.8709 85.416 36.5454 85.8119 36.3225C86.2168 36.0943 86.6768 35.9768 87.1439 35.9822C87.62 35.9738 88.0889 36.0965 88.4972 36.3364C88.8856 36.5651 89.2008 36.8959 89.407 37.2911C89.6216 37.7026 89.7307 38.159 89.7248 38.621ZM87.1439 36.729C86.7183 36.7148 86.3021 36.8538 85.9743 37.1199C85.6464 37.386 85.4295 37.7606 85.3647 38.1727H88.923C88.8597 37.7599 88.6433 37.3844 88.315 37.1181C87.9868 36.8517 87.5699 36.7132 87.1439 36.729Z" fill="#0B3F81"/>
<path d="M92.2785 41.1078V34.298H93.0898V41.1078H92.2785Z" fill="#0B3F81"/>
<path d="M100.842 38.6211C100.842 38.7117 100.842 38.8057 100.829 38.9033H96.4595C96.5038 39.3355 96.713 39.7354 97.0454 40.023C97.3827 40.3082 97.817 40.459 98.2624 40.4457C98.5913 40.4507 98.9157 40.3705 99.2029 40.2134C99.4753 40.0631 99.7008 39.8431 99.8553 39.577H100.708C100.513 40.0638 100.175 40.4835 99.7379 40.7837C99.3031 41.0727 98.7878 41.2232 98.2624 41.2146C97.7953 41.22 97.3352 41.1025 96.9304 40.8743C96.5345 40.6519 96.209 40.3267 95.9898 39.9347C95.7661 39.5235 95.6491 39.0648 95.6491 38.599C95.6491 38.1331 95.7661 37.6744 95.9898 37.2633C96.2086 36.8707 96.5342 36.5451 96.9304 36.3225C97.3352 36.0943 97.7953 35.9768 98.2624 35.9822C98.7381 35.9736 99.2067 36.0964 99.6145 36.3364C100.003 36.5651 100.319 36.8958 100.525 37.2912C100.739 37.7029 100.848 38.1592 100.842 38.6211ZM98.2624 36.729C97.8366 36.7143 97.4202 36.8532 97.0922 37.1193C96.7642 37.3855 96.5475 37.7604 96.4832 38.1727H100.042C99.9782 37.7599 99.7617 37.3844 99.4335 37.1181C99.1053 36.8518 98.6883 36.7132 98.2624 36.729Z" fill="#0B3F81"/>
<path d="M105.74 36.0623H106.193V36.8115H105.67C105.206 36.8115 104.846 36.9505 104.59 37.2284C104.334 37.5064 104.206 37.8905 104.206 38.3806V41.1078H103.395V36.0902H103.969L104.099 36.8521C104.469 36.3264 105.016 36.0631 105.74 36.0623Z" fill="#0B3F81"/>
<path d="M109.987 41.217C109.381 41.217 108.895 41.0687 108.527 40.7721C108.345 40.6261 108.199 40.4426 108.098 40.2349C107.997 40.0271 107.944 39.8001 107.943 39.57H108.731C108.736 39.7041 108.774 39.8352 108.84 39.9525C108.907 40.0699 109.001 40.1704 109.114 40.246C109.381 40.416 109.696 40.5001 110.014 40.4864C110.318 40.4993 110.62 40.4267 110.884 40.2773C110.987 40.2202 111.072 40.137 111.131 40.0365C111.19 39.936 111.221 39.8218 111.219 39.7059C111.221 39.619 111.205 39.5326 111.173 39.4515C111.142 39.3756 111.091 39.3091 111.025 39.2587C110.96 39.2087 110.892 39.1633 110.821 39.1228C110.733 39.0798 110.64 39.0474 110.544 39.0264C110.425 38.9962 110.323 38.973 110.238 38.9567C110.153 38.9393 110.038 38.9196 109.893 38.8952L109.626 38.8499C109.564 38.8371 109.477 38.8197 109.367 38.7953C109.278 38.777 109.191 38.7541 109.106 38.7268C109.04 38.7058 108.96 38.6791 108.868 38.6454C108.787 38.6192 108.71 38.5825 108.638 38.5363C108.581 38.4968 108.52 38.4515 108.446 38.3981C108.38 38.3502 108.323 38.2912 108.278 38.2238C108.235 38.1554 108.195 38.0848 108.159 38.0124C108.117 37.9302 108.088 37.842 108.074 37.7511C108.056 37.6479 108.047 37.5434 108.048 37.4387C108.044 37.2352 108.091 37.0338 108.183 36.8518C108.276 36.6698 108.413 36.5125 108.581 36.3933C108.936 36.1246 109.403 35.9907 109.98 35.9915C110.557 35.9922 111.02 36.132 111.368 36.4108C111.539 36.5479 111.676 36.7208 111.771 36.9167C111.865 37.1126 111.913 37.3267 111.912 37.5432H111.137C111.136 37.4201 111.105 37.2991 111.047 37.1899C110.989 37.0807 110.905 36.9865 110.803 36.9148C110.55 36.7549 110.252 36.6777 109.951 36.6942C109.661 36.679 109.372 36.7476 109.121 36.8916C108.994 36.9668 108.897 37.0836 108.849 37.2215C108.801 37.3594 108.804 37.5095 108.858 37.6454C108.886 37.7151 108.935 37.7754 108.997 37.8196C109.058 37.8659 109.123 37.9071 109.191 37.9428C109.277 37.9824 109.367 38.0128 109.459 38.0333C109.578 38.0601 109.671 38.0821 109.752 38.0961C109.833 38.11 109.944 38.1297 110.09 38.1507C110.461 38.1994 110.826 38.2862 111.179 38.4097C111.413 38.4914 111.617 38.6394 111.765 38.8348C111.912 39.0303 111.998 39.2643 112.009 39.5073C112.015 39.5648 112.019 39.6225 112.019 39.6803C112.025 39.8978 111.978 40.1136 111.881 40.3093C111.785 40.5051 111.641 40.675 111.462 40.8046C111.09 41.0764 110.598 41.217 109.987 41.217Z" fill="#0B3F81"/>
<path d="M120.669 41.217C120.194 41.2224 119.726 41.105 119.312 40.8767C118.91 40.6551 118.578 40.3292 118.353 39.9347C118.125 39.5247 118.006 39.0656 118.006 38.599C118.006 38.1324 118.125 37.6733 118.353 37.2633C118.578 36.8701 118.91 36.5454 119.312 36.3248C119.726 36.0964 120.194 35.9791 120.669 35.9845C121.237 35.9711 121.793 36.1422 122.251 36.4712C122.696 36.7953 123.015 37.2576 123.157 37.7825H122.36C122.217 37.4683 121.982 37.2028 121.684 37.0194C121.38 36.8342 121.027 36.7382 120.669 36.7429C120.424 36.7368 120.181 36.7811 119.955 36.8729C119.728 36.9648 119.524 37.1021 119.356 37.2761C119.017 37.6361 118.828 38.108 118.828 38.5978C118.828 39.0877 119.017 39.5596 119.356 39.9196C119.524 40.0934 119.728 40.2308 119.953 40.3228C120.179 40.4148 120.422 40.4595 120.667 40.4539C121.023 40.46 121.373 40.3622 121.672 40.1728C121.97 39.9805 122.205 39.7083 122.348 39.3888H123.165C123.022 39.9205 122.699 40.389 122.249 40.7175C121.794 41.0514 121.238 41.2272 120.669 41.217Z" fill="#0B3F81"/>
<path d="M127.947 41.217C127.589 41.2269 127.233 41.1658 126.899 41.0375C126.566 40.9092 126.263 40.7162 126.008 40.4701C125.753 40.2277 125.553 39.9363 125.419 39.6142C125.286 39.2921 125.222 38.9465 125.232 38.599C125.226 38.1284 125.349 37.6648 125.588 37.2563C125.818 36.8615 126.155 36.5369 126.563 36.319C126.99 36.0973 127.467 35.9814 127.95 35.9814C128.434 35.9814 128.911 36.0973 129.338 36.319C129.746 36.5377 130.085 36.863 130.315 37.2586C130.548 37.6686 130.67 38.13 130.67 38.599C130.67 39.068 130.548 39.5293 130.315 39.9393C130.085 40.335 129.746 40.6603 129.338 40.879C128.912 41.1074 128.433 41.2238 127.947 41.217ZM126.59 39.93C126.907 40.2645 127.333 40.4801 127.795 40.5397C128.257 40.5992 128.726 40.499 129.12 40.2562C129.514 40.0135 129.81 39.6435 129.956 39.2101C130.101 38.7767 130.088 38.3071 129.917 37.8824C129.747 37.4578 129.431 37.1047 129.023 36.8841C128.615 36.6635 128.141 36.5892 127.684 36.6742C127.226 36.7591 126.813 36.9979 126.516 37.3493C126.219 37.7008 126.056 38.1428 126.056 38.599C126.047 38.8448 126.09 39.0899 126.182 39.3188C126.274 39.5478 126.413 39.7559 126.59 39.93Z" fill="#0B3F81"/>
<path d="M135.8 35.981C136.07 35.9702 136.339 36.0179 136.587 36.1207C136.836 36.2235 137.058 36.3789 137.239 36.5757C137.599 36.9721 137.778 37.4816 137.778 38.1042V41.1078H136.972V38.29C136.972 37.7821 136.853 37.3903 136.616 37.1146C136.379 36.8389 136.038 36.7015 135.592 36.7023C135.384 36.6983 135.177 36.7394 134.986 36.8225C134.796 36.9056 134.626 37.0287 134.489 37.1831C134.191 37.5089 134.031 37.9348 134.045 38.3725V41.1078H133.234V36.0902H133.809L133.966 36.8742C134.16 36.5938 134.425 36.3674 134.735 36.2168C135.066 36.0569 135.431 35.9761 135.8 35.981Z" fill="#0B3F81"/>
<path d="M143.234 35.981C143.504 35.97 143.773 36.0176 144.022 36.1205C144.271 36.2233 144.493 36.3788 144.673 36.5757C145.034 36.9722 145.214 37.4817 145.213 38.1042V41.1078H144.408V38.2901C144.408 37.7821 144.289 37.3903 144.052 37.1147C143.814 36.839 143.473 36.7016 143.028 36.7023C142.819 36.6984 142.613 36.7394 142.422 36.8225C142.231 36.9056 142.062 37.0288 141.925 37.1832C141.626 37.509 141.467 37.9349 141.48 38.3725V41.1078H140.671V36.0902H141.247L141.404 36.8742C141.598 36.5939 141.863 36.3674 142.173 36.2168C142.503 36.0575 142.867 35.9767 143.234 35.981Z" fill="#0B3F81"/>
<path d="M152.894 38.6211C152.894 38.7117 152.894 38.8057 152.881 38.9033H148.511C148.556 39.3355 148.765 39.7354 149.097 40.023C149.434 40.3079 149.868 40.4588 150.313 40.4458C150.642 40.4509 150.967 40.3708 151.254 40.2135C151.527 40.0635 151.753 39.8434 151.907 39.577H152.76C152.565 40.0638 152.227 40.4835 151.79 40.7838C151.355 41.0729 150.839 41.2234 150.313 41.2147C149.846 41.2197 149.386 41.1022 148.981 40.8744C148.586 40.6514 148.26 40.3264 148.041 39.9347C147.818 39.5233 147.701 39.0647 147.701 38.599C147.701 38.1333 147.818 37.6747 148.041 37.2633C148.26 36.8712 148.585 36.5457 148.981 36.3225C149.386 36.0947 149.846 35.9772 150.313 35.9822C150.789 35.9735 151.258 36.0963 151.666 36.3364C152.055 36.5654 152.37 36.8961 152.577 37.2912C152.791 37.7029 152.9 38.1592 152.894 38.6211ZM150.313 36.729C149.887 36.7143 149.471 36.8532 149.143 37.1193C148.815 37.3855 148.598 37.7604 148.534 38.1727H152.092C152.029 37.7599 151.813 37.3845 151.484 37.1181C151.156 36.8518 150.739 36.7132 150.313 36.729Z" fill="#0B3F81"/>
<path d="M157.707 41.217C157.232 41.2224 156.764 41.1051 156.35 40.8767C155.948 40.6551 155.616 40.3292 155.391 39.9347C155.163 39.5248 155.044 39.0656 155.044 38.599C155.044 38.1325 155.163 37.6733 155.391 37.2633C155.617 36.8701 155.949 36.5454 156.35 36.3248C156.764 36.0965 157.232 35.9791 157.707 35.9845C158.276 35.9703 158.834 36.1415 159.293 36.4712C159.738 36.7954 160.057 37.2576 160.199 37.7825H159.402C159.259 37.4683 159.024 37.2028 158.726 37.0194C158.422 36.8342 158.069 36.7383 157.711 36.743C157.466 36.7368 157.223 36.7811 156.997 36.873C156.77 36.9648 156.566 37.1021 156.398 37.2761C156.059 37.6361 155.87 38.108 155.87 38.5979C155.87 39.0877 156.059 39.5596 156.398 39.9196C156.566 40.0934 156.77 40.2308 156.995 40.3228C157.221 40.4148 157.464 40.4595 157.708 40.4539C158.065 40.46 158.415 40.3622 158.714 40.1728C159.012 39.9805 159.247 39.7084 159.39 39.3888H160.206C160.064 39.9205 159.741 40.389 159.291 40.7176C158.835 41.0522 158.277 41.228 157.707 41.217Z" fill="#0B3F81"/>
<path d="M164.8 40.3772H165.356V41.1078H164.693C164.14 41.1078 163.705 40.9529 163.389 40.6432C163.072 40.3334 162.914 39.9045 162.914 39.3563V36.8022H162.01V36.6616L163.595 35.0286H163.721V36.0902H165.328V36.8022H163.721V39.3295C163.721 39.6687 163.813 39.9281 163.998 40.1077C164.183 40.2878 164.451 40.3772 164.8 40.3772Z" fill="#0B3F81"/>
<path d="M172.504 38.6211C172.504 38.7117 172.504 38.8057 172.491 38.9033H168.121C168.166 39.3355 168.375 39.7354 168.707 40.023C169.044 40.3079 169.478 40.4588 169.923 40.4458C170.252 40.4509 170.576 40.3708 170.864 40.2135C171.136 40.0635 171.362 39.8434 171.517 39.577H172.37C172.174 40.0638 171.837 40.4835 171.4 40.7838C170.964 41.0729 170.449 41.2234 169.923 41.2147C169.456 41.2197 168.996 41.1022 168.591 40.8744C168.195 40.6514 167.87 40.3264 167.65 39.9347C167.427 39.5233 167.311 39.0647 167.311 38.599C167.311 38.1333 167.427 37.6747 167.65 37.2633C167.87 36.8712 168.195 36.5457 168.591 36.3225C168.996 36.0947 169.456 35.9772 169.923 35.9822C170.399 35.9735 170.868 36.0963 171.276 36.3364C171.665 36.5654 171.98 36.8961 172.187 37.2912C172.401 37.7029 172.51 38.1592 172.504 38.6211ZM169.923 36.729C169.497 36.7143 169.081 36.8532 168.753 37.1193C168.425 37.3855 168.208 37.7604 168.144 38.1727H171.702C171.639 37.7599 171.422 37.3845 171.094 37.1181C170.766 36.8518 170.349 36.7132 169.923 36.729Z" fill="#0B3F81"/>
<path d="M179.193 34.298H180V41.1078H179.375L179.268 40.3958C179.026 40.6572 178.728 40.8637 178.396 41.001C178.048 41.1467 177.673 41.2203 177.295 41.217C176.943 41.2284 176.592 41.1678 176.265 41.0392C175.939 40.9107 175.643 40.7168 175.397 40.4702C175.15 40.2234 174.957 39.9305 174.829 39.609C174.701 39.2875 174.64 38.944 174.651 38.599C174.643 38.1314 174.759 37.6698 174.986 37.2587C175.204 36.8663 175.53 36.5416 175.927 36.3213C176.343 36.0913 176.814 35.9738 177.292 35.981C177.652 35.978 178.009 36.0443 178.343 36.1762C178.661 36.3012 178.949 36.4881 179.191 36.7255L179.193 34.298ZM176.017 39.9254C176.379 40.2658 176.862 40.4559 177.364 40.4559C177.866 40.4559 178.349 40.2658 178.711 39.9254C179.056 39.5674 179.248 39.0937 179.248 38.6013C179.248 38.109 179.056 37.6353 178.711 37.2772C178.348 36.9374 177.866 36.7477 177.364 36.7477C176.862 36.7477 176.38 36.9374 176.017 37.2772C175.673 37.6368 175.481 38.1113 175.481 38.6042C175.481 39.0972 175.673 39.5717 176.017 39.9312V39.9254Z" fill="#0B3F81"/>
<path d="M32.2038 40.7327L31.7554 40.5677L31.5182 40.4771L31.1031 40.3157L30.8659 40.2181L30.4543 40.0497L30.2171 39.9521L29.7901 39.7675L29.5825 39.6769L29.0998 39.4585L28.9562 39.3923C28.5253 39.1925 28.0995 38.9854 27.6788 38.7709L27.6563 38.7593C27.457 38.6583 27.2577 38.5549 27.0632 38.4503L26.9541 38.3911C26.7841 38.3005 26.6149 38.2088 26.4464 38.1158L26.3183 38.0438C26.1535 37.9521 25.991 37.8603 25.8273 37.7662L25.7087 37.6954C25.5403 37.5967 25.3718 37.4979 25.2046 37.3969L25.1109 37.3411C24.9211 37.2258 24.7325 37.1096 24.5451 36.9927L24.5226 36.9787C22.7769 35.8819 21.1205 34.6544 19.5683 33.3073C19.4034 33.1644 19.2409 33.0216 19.0784 32.8764L19.0594 32.859C18.904 32.7196 18.751 32.5802 18.598 32.4385L18.5577 32.4002C18.4146 32.2678 18.2719 32.1334 18.1295 31.9971L18.0655 31.9367C17.9334 31.809 17.8022 31.6808 17.6717 31.5523L17.5851 31.4675C17.4633 31.3452 17.342 31.2224 17.221 31.0993C17.1854 31.0645 17.151 31.0285 17.1166 30.9936C16.998 30.8775 16.8794 30.7509 16.7608 30.6278C16.7252 30.5906 16.6884 30.5546 16.654 30.5116C16.5046 30.3536 16.3563 30.1934 16.2092 30.0331C16.2578 30.5757 16.3426 31.1146 16.4631 31.6464C17.1024 34.4061 17.434 37.2257 17.4523 40.0555V40.9417C18.1707 40.2404 19.1001 39.7835 20.1037 39.6381C21.1072 39.4928 22.1319 39.6668 23.0269 40.1345C24.5556 40.931 26.2312 41.4209 27.9557 41.5755C29.6801 41.7301 31.4187 41.5462 33.0696 41.0346C32.849 40.9615 32.6296 40.8848 32.4113 40.8024L32.2038 40.7327Z" fill="#0B3F81"/>
<path d="M16.7311 25.1537C16.2345 26.731 16.0553 28.3877 16.2032 30.0319C20.7707 35.0527 26.5783 38.8409 33.0696 41.0335C34.6811 40.5342 36.1767 39.7295 37.4712 38.6652C29.1537 36.6823 21.8126 31.8998 16.7311 25.1537Z" fill="#2499E0"/>
<path d="M41.9096 31.2445C42.2038 29.6883 42.2002 28.092 41.8989 26.537C38.3985 25.9135 35.0889 24.5178 32.221 22.4557C29.3532 20.3936 27.0025 17.7192 25.3469 14.6353L21.8633 18.0466C26.1013 25.0178 33.3887 30.0075 41.9096 31.2445Z" fill="#0B3F81"/>
<path d="M19.2966 20.6146C18.1299 21.9375 17.2563 23.4831 16.7311 25.1537C21.8122 31.9006 29.1534 36.684 37.4712 38.6676C37.7638 38.4283 38.048 38.1739 38.324 37.9045C39.3157 36.9356 40.1405 35.8158 40.7662 34.5884C36.3885 33.8594 32.2157 32.239 28.5175 29.832C24.8193 27.425 21.678 24.2849 19.2966 20.6146Z" fill="#0B3F81"/>
<path d="M21.8633 18.0512L19.9561 19.9189C19.726 20.1442 19.5062 20.3765 19.2966 20.6158C21.6779 24.2859 24.819 27.4259 28.517 29.8329C32.2149 32.24 36.3875 33.8604 40.765 34.5896C41.3038 33.5322 41.6891 32.4063 41.9096 31.2445C33.3887 30.0075 26.1013 25.0178 21.8633 18.0512Z" fill="#2499E0"/>
<path d="M28.0026 12.0394L25.3469 14.6353C27.0031 17.7181 29.3542 20.3914 32.222 22.4524C35.0898 24.5135 38.399 25.9083 41.8989 26.5312C41.6328 25.1541 41.135 23.8298 40.4258 22.6123C37.7048 21.8196 35.1885 20.4659 33.0458 18.6423C30.9031 16.8188 29.1835 14.5674 28.0026 12.0394Z" fill="#2499E0"/>
<path d="M43.1846 12.6027C44.4948 12.6027 45.5568 11.5627 45.5568 10.2798C45.5568 8.99681 44.4948 7.95679 43.1846 7.95679C41.8745 7.95679 40.8124 8.99681 40.8124 10.2798C40.8124 11.5627 41.8745 12.6027 43.1846 12.6027Z" fill="#3094DF"/>
<path d="M53.1479 6.67914H51.1042C50.4241 6.67852 49.7508 6.5467 49.1228 6.29121C48.4948 6.03572 47.9243 5.66157 47.4439 5.19012L47.4297 5.17618C46.616 4.37744 45.6494 3.7436 44.5854 3.31092C43.5213 2.87823 42.3806 2.65519 41.2285 2.65454C40.0763 2.6539 38.9353 2.87566 37.8708 3.30714C36.8062 3.73863 35.8389 4.37138 35.0243 5.16921L28.0026 12.0394C29.1839 14.5667 30.9036 16.8174 33.0463 18.6404C35.189 20.4634 37.7051 21.8165 40.4258 22.6089C39.8508 21.6234 39.144 20.7175 38.324 19.9154L37.3621 18.9734C38.702 19.6146 40.1866 19.9109 41.6758 19.8344C43.1651 19.7578 44.6099 19.3109 45.8738 18.5359C47.1378 17.7609 48.1793 16.6833 48.8999 15.4048C49.6206 14.1263 49.9968 12.689 49.9928 11.2287C49.9829 10.4067 50.1942 9.59662 50.6054 8.87996C51.0166 8.16329 51.6133 7.56528 52.3354 7.14606L53.1479 6.67914Z" fill="#0B3F81"/>
<path d="M43.4456 11.0928C43.4463 10.8515 43.5341 10.6183 43.6936 10.4343C43.853 10.2504 44.0737 10.1276 44.3167 10.0877C44.5597 10.0478 44.8092 10.0933 45.0212 10.2162C45.2332 10.3392 45.394 10.5316 45.475 10.7594C45.5289 10.5652 45.5564 10.3648 45.5569 10.1636C45.5571 9.64727 45.3816 9.14562 45.0582 8.73785C44.7348 8.33008 44.2819 8.03943 43.771 7.91181C43.2602 7.78419 42.7204 7.82686 42.2371 8.0331C41.7537 8.23934 41.3543 8.59738 41.1019 9.05067C40.8495 9.50397 40.7585 10.0267 40.8433 10.5363C40.9281 11.0458 41.1838 11.5132 41.5701 11.8646C41.9564 12.216 42.4512 12.4314 42.9764 12.4767C43.5016 12.522 44.0273 12.3947 44.4704 12.1149C44.197 12.1097 43.9365 11.9998 43.7449 11.8087C43.5533 11.6176 43.4459 11.3606 43.4456 11.0928Z" fill="#2499E0"/>
<path d="M30.7282 9.85578C29.9107 8.23493 28.7139 6.82597 27.2353 5.74356C25.7567 4.66116 24.0381 3.93588 22.2192 3.62675L5.57463 0.771822C1.41261 0.0575104 -1.55382 4.63143 0.876495 8.01483L10.5729 21.5333C11.4788 22.8084 12.6398 23.8899 13.9855 24.7123C15.3311 25.5347 16.8334 26.0808 18.4011 26.3175C24.608 27.2641 30.5313 23.1896 31.7293 17.1511C32.2244 14.6777 31.8726 12.1134 30.7282 9.85578Z" fill="#2499E0"/>
<g style="mix-blend-mode:multiply" opacity="0.5">
<g style="mix-blend-mode:multiply" opacity="0.5">
<path d="M32.8549 8.8279C32.6833 8.4903 32.4979 8.16044 32.2986 7.83832L30.5598 9.53524C30.6168 9.64094 30.6784 9.7478 30.7283 9.85581C31.873 12.1133 32.2253 14.6776 31.7305 17.1511C30.5325 23.1908 24.6139 27.2641 18.4023 26.3175C17.766 26.2207 17.1388 26.0731 16.5271 25.8762C16.3358 26.6381 16.2167 27.4157 16.1713 28.1991C16.7825 28.3754 17.405 28.512 18.0346 28.608C18.75 28.7174 19.4729 28.7725 20.1969 28.7729C23.4723 28.7692 26.6449 27.6521 29.1727 25.6123C31.7005 23.5725 33.4267 20.7366 34.0564 17.589C34.6551 14.6188 34.2326 11.5382 32.8549 8.8279Z" fill="#0B3F81"/>
</g>
</g>
</svg>
